%YAML 1.1
%TAG !u! tag:unity3d.com,2011:
--- !u!74 &7400000
AnimationClip:
  m_ObjectHideFlags: 0
  m_CorrespondingSourceObject: {fileID: 0}
  m_PrefabInternal: {fileID: 0}
  m_Name: Dead
  serializedVersion: 6
  m_Legacy: 0
  m_Compressed: 0
  m_UseHighQualityCurve: 1
  m_RotationCurves: []
  m_CompressedRotationCurves: []
  m_EulerCurves: []
  m_PositionCurves: []
  m_ScaleCurves: []
  m_FloatCurves: []
  m_PPtrCurves:
  - curve:
    - time: 0
      value: {fileID: 21300000, guid: 64f3df4f145efd94586414f2d01e9539, type: 3}
    - time: 0.083333336
      value: {fileID: 21300000, guid: 32e2545787541b8448a25c25342d78af, type: 3}
    - time: 0.16666667
      value: {fileID: 21300000, guid: ccbf9164902099a4cb4467af43b89642, type: 3}
    - time: 0.25
      value: {fileID: 21300000, guid: f092626aea45a524a865f103e851e6e5, type: 3}
    - time: 0.33333334
      value: {fileID: 21300000, guid: c4a4d65f82a96b04c902017f6187c386, type: 3}
    - time: 0.41666666
      value: {fileID: 21300000, guid: edb014766bcfe7542ad8685552eaa4d6, type: 3}
    - time: 0.5
      value: {fileID: 21300000, guid: 61743163d6fa4f043b8cb94d20b84638, type: 3}
    - time: 0.5833333
      value: {fileID: 21300000, guid: 202692f1050616b49aba1da0453a9264, type: 3}
    attribute: m_Sprite
    path: 
    classID: 212
    script: {fileID: 0}
  m_SampleRate: 12
  m_WrapMode: 0
  m_Bounds:
    m_Center: {x: 0, y: 0, z: 0}
    m_Extent: {x: 0, y: 0, z: 0}
  m_ClipBindingConstant:
    genericBindings:
    - serializedVersion: 2
      path: 0
      attribute: 0
      script: {fileID: 0}
      typeID: 212
      customType: 23
      isPPtrCurve: 1
    pptrCurveMapping:
    - {fileID: 21300000, guid: 64f3df4f145efd94586414f2d01e9539, type: 3}
    - {fileID: 21300000, guid: 32e2545787541b8448a25c25342d78af, type: 3}
    - {fileID: 21300000, guid: ccbf9164902099a4cb4467af43b89642, type: 3}
    - {fileID: 21300000, guid: f092626aea45a524a865f103e851e6e5, type: 3}
    - {fileID: 21300000, guid: c4a4d65f82a96b04c902017f6187c386, type: 3}
    - {fileID: 21300000, guid: edb014766bcfe7542ad8685552eaa4d6, type: 3}
    - {fileID: 21300000, guid: 61743163d6fa4f043b8cb94d20b84638, type: 3}
    - {fileID: 21300000, guid: 202692f1050616b49aba1da0453a9264, type: 3}
  m_AnimationClipSettings:
    serializedVersion: 2
    m_AdditiveReferencePoseClip: {fileID: 0}
    m_AdditiveReferencePoseTime: 0
    m_StartTime: 0
    m_StopTime: 0.6666666
    m_OrientationOffsetY: 0
    m_Level: 0
    m_CycleOffset: 0
    m_HasAdditiveReferencePose: 0
    m_LoopTime: 0
    m_LoopBlend: 0
    m_LoopBlendOrientation: 0
    m_LoopBlendPositionY: 0
    m_LoopBlendPositionXZ: 0
    m_KeepOriginalOrientation: 0
    m_KeepOriginalPositionY: 1
    m_KeepOriginalPositionXZ: 0
    m_HeightFromFeet: 0
    m_Mirror: 0
  m_EditorCurves: []
  m_EulerEditorCurves: []
  m_HasGenericRootTransform: 0
  m_HasMotionFloatCurves: 0
  m_GenerateMotionCurves: 0
  m_Events: []
