%YAML 1.1
%TAG !u! tag:unity3d.com,2011:
--- !u!74 &7400000
AnimationClip:
  m_ObjectHideFlags: 0
  m_CorrespondingSourceObject: {fileID: 0}
  m_PrefabInternal: {fileID: 0}
  m_Name: Walk
  serializedVersion: 6
  m_Legacy: 0
  m_Compressed: 0
  m_UseHighQualityCurve: 1
  m_RotationCurves: []
  m_CompressedRotationCurves: []
  m_EulerCurves: []
  m_PositionCurves: []
  m_ScaleCurves: []
  m_FloatCurves: []
  m_PPtrCurves:
  - curve:
    - time: 0
      value: {fileID: 21300000, guid: 18188a7de1951be4bb2fd556dac99c71, type: 3}
    - time: 0.083333336
      value: {fileID: 21300000, guid: 8bf60bed923df72428af60c11c65d404, type: 3}
    - time: 0.16666667
      value: {fileID: 21300000, guid: de4ea9a4b2251f64d91d23b7c9ceffc2, type: 3}
    - time: 0.25
      value: {fileID: 21300000, guid: e3ddbd3461ef0094f8ba82a1a0d1053c, type: 3}
    - time: 0.33333334
      value: {fileID: 21300000, guid: 7228a8d6891d6314aa3645e7b1a8ea60, type: 3}
    - time: 0.41666666
      value: {fileID: 21300000, guid: 84336f40952f8cc4e9a540df6bfa0c60, type: 3}
    - time: 0.5
      value: {fileID: 21300000, guid: 9fcca4413cd474d49a5fdd39d44bee2f, type: 3}
    - time: 0.5833333
      value: {fileID: 21300000, guid: 596d5ee976b1b2b4a822bcf1229e3914, type: 3}
    - time: 0.6666667
      value: {fileID: 21300000, guid: 7af40c27a6446a143a92de449e037327, type: 3}
    - time: 0.75
      value: {fileID: 21300000, guid: e109b54298082d24c92b4a5628c4178e, type: 3}
    attribute: m_Sprite
    path: 
    classID: 212
    script: {fileID: 0}
  m_SampleRate: 12
  m_WrapMode: 0
  m_Bounds:
    m_Center: {x: 0, y: 0, z: 0}
    m_Extent: {x: 0, y: 0, z: 0}
  m_ClipBindingConstant:
    genericBindings:
    - serializedVersion: 2
      path: 0
      attribute: 0
      script: {fileID: 0}
      typeID: 212
      customType: 23
      isPPtrCurve: 1
    pptrCurveMapping:
    - {fileID: 21300000, guid: 18188a7de1951be4bb2fd556dac99c71, type: 3}
    - {fileID: 21300000, guid: 8bf60bed923df72428af60c11c65d404, type: 3}
    - {fileID: 21300000, guid: de4ea9a4b2251f64d91d23b7c9ceffc2, type: 3}
    - {fileID: 21300000, guid: e3ddbd3461ef0094f8ba82a1a0d1053c, type: 3}
    - {fileID: 21300000, guid: 7228a8d6891d6314aa3645e7b1a8ea60, type: 3}
    - {fileID: 21300000, guid: 84336f40952f8cc4e9a540df6bfa0c60, type: 3}
    - {fileID: 21300000, guid: 9fcca4413cd474d49a5fdd39d44bee2f, type: 3}
    - {fileID: 21300000, guid: 596d5ee976b1b2b4a822bcf1229e3914, type: 3}
    - {fileID: 21300000, guid: 7af40c27a6446a143a92de449e037327, type: 3}
    - {fileID: 21300000, guid: e109b54298082d24c92b4a5628c4178e, type: 3}
  m_AnimationClipSettings:
    serializedVersion: 2
    m_AdditiveReferencePoseClip: {fileID: 0}
    m_AdditiveReferencePoseTime: 0
    m_StartTime: 0
    m_StopTime: 0.8333333
    m_OrientationOffsetY: 0
    m_Level: 0
    m_CycleOffset: 0
    m_HasAdditiveReferencePose: 0
    m_LoopTime: 1
    m_LoopBlend: 0
    m_LoopBlendOrientation: 0
    m_LoopBlendPositionY: 0
    m_LoopBlendPositionXZ: 0
    m_KeepOriginalOrientation: 0
    m_KeepOriginalPositionY: 1
    m_KeepOriginalPositionXZ: 0
    m_HeightFromFeet: 0
    m_Mirror: 0
  m_EditorCurves: []
  m_EulerEditorCurves: []
  m_HasGenericRootTransform: 0
  m_HasMotionFloatCurves: 0
  m_GenerateMotionCurves: 0
  m_Events: []
